{
    "version": "0.1.2",
    "apiPort": 8181,
    "debugLevel": "0",
    "pathDownloads": "/home/user/downloads/clippy/",
    "ytDlLoggingEnabled": true,
    "fullPathYtDl": "youtube-dl",
    "argOutput": "-o",
    "argTemplateName": ".%(ext)s",
    "thumbailCacheDir": "/home/user/downloads/clippy/cache/",
    "ytApiKey": ""
}